<?xml version="1.0" encoding="UTF-8"?>
<!DOCTYPE suite SYSTEM "http://testng.org/testng-1.0.dtd">
<suite guice-stage="DEVELOPMENT" verbose="0" name="Failed suite [Markettest]">
  <test name="Alfatest">
    <classes>
      <class name="Testmail">
        <methods>
          <include name="Testmail"/>
        </methods>
      </class> <!-- Testmail -->
    </classes>
  </test> <!-- Alfatest -->
  <test name="Alfatest(failed)">
    <classes>
      <class name="Testmail">
        <methods>
          <include name="s03_UrlCcheck"/>
          <include name="s02_UrlOpen"/>
        </methods>
      </class> <!-- Testmail -->
    </classes>
  </test> <!-- Alfatest(failed) -->
</suite> <!-- Failed suite [Markettest] -->
